\relax 
\citation{vlogs}
\citation{dreuw}
\citation{zaki}
\citation{bowden}
\citation{liw}
\citation{theo}
\citation{vog}
\citation{kim2012}
\citation{kim2013}
\citation{more-recent-refs?}
\citation{HumPad2004}
\citation{HumPad2004}
\citation{Padden}
\citation{bren}
\citation{john}
\citation{others}
\citation{kim2012}
\citation{kim2013}
\citation{kim2012}
\citation{kim2013}
\citation{timit}
\@writefile{toc}{\contentsline {section}{\numberline {1} INTRODUCTION}{1}}
\newlabel{sec:intro}{{1}{1}}
\@writefile{lof}{\contentsline {figure}{\numberline {1}{\ignorespaces The ASL fingerspelled alphabet. Reproduced from\nobreakspace  {}\cite  {HumPad2004}.}}{1}}
\newlabel{f:alphabet}{{1}{1}}
\citation{kim2012}
\citation{kim2013}
\citation{kim2012}
\citation{kim2013}
\citation{kim2012}
\citation{bren}
\citation{john}
\citation{kim2012}
\citation{kim2013}
\citation{sarawagisemi}
\citation{zweig}
\citation{kim2013}
\citation{kim2013}
\citation{tang2015}
\citation{tang2015}
\citation{Neto_95a}
\citation{Yao_12a}
\citation{Yao_12a}
\citation{kim2012}
\citation{kim2012}
\citation{kim2013}
\citation{kim2013}
\citation{hog}
\@writefile{toc}{\contentsline {section}{\numberline {2} METHODS}{2}}
\newlabel{sec:method}{{2}{2}}
\@writefile{toc}{\contentsline {subsection}{\numberline {2.1} Recognizers}{2}}
\@writefile{toc}{\contentsline {subsection}{\numberline {2.2} DNN adaptation}{2}}
\newlabel{sec:dnn}{{2.2}{2}}
\@writefile{toc}{\contentsline {section}{\numberline {3} EXPERIMENTS}{2}}
\newlabel{sec:experiments}{{3}{2}}
\citation{Zeiler_13a}
\citation{Srivas_14a}
\@writefile{lof}{\contentsline {figure}{\numberline {2}{\ignorespaces Images and ground truth segmentations of fingerspelled word 'TURIP' from two signers. It reflects the actual speeds and shows variations of hand shapes and speeds of articulation. Asterisks peak frame for each letter are denoted with asterisks and n/a denotes periods before the first letter and after the last letter.}}{3}}
\newlabel{fig:ex}{{2}{3}}
\@writefile{lof}{\contentsline {figure}{\numberline {3}{\ignorespaces Left: Unadapted DNN classifier; middle: adaptation via linear input network and output layer updating (LIN+UP); right: adaptation via linear input network and linear output network (LIN+LON).}}{3}}
\newlabel{fig:dnn-adapt}{{3}{3}}
\@writefile{toc}{\contentsline {subsection}{\numberline {3.1} Frame classification}{3}}
\citation{kim2012}
\citation{kim2012}
\citation{kim2013}
\bibstyle{IEEEbib}
\bibdata{icassp16b}
\bibcite{dreuw}{1}
\bibcite{zaki}{2}
\bibcite{bowden}{3}
\@writefile{lof}{\contentsline {figure}{\numberline {4}{\ignorespaces DNN frame accuracies with and without normalization/adaptation. The numerical labels on the horizontal axis correspond to the amount of adaptation data (0, 1, 2, 3 = none, 10\%, 20\%, 30\% of the test signer's data, corresponding to no adaptation, $\sim 58$, $\sim 115$, and $\sim 173$ words for adaptation).}}{4}}
\newlabel{fig:adapt}{{4}{4}}
\@writefile{toc}{\contentsline {subsection}{\numberline {3.2} Connected letter recognition}{4}}
\@writefile{lot}{\contentsline {table}{\numberline {1}{\ignorespaces Letter accuracies, averaged over four test signers.}}{4}}
\newlabel{t:LER}{{1}{4}}
\@writefile{toc}{\contentsline {section}{\numberline {4} CONCLUSION}{4}}
\newlabel{sec:conclusions}{{4}{4}}
\@writefile{toc}{\contentsline {section}{\numberline {5} References}{4}}
\bibcite{liw}{4}
\bibcite{theo}{5}
\bibcite{vog}{6}
\bibcite{kim2012}{7}
\bibcite{kim2013}{8}
\bibcite{HumPad2004}{9}
\bibcite{Padden}{10}
\bibcite{bren}{11}
\bibcite{john}{12}
\bibcite{timit}{13}
\bibcite{sarawagisemi}{14}
\bibcite{zweig}{15}
\bibcite{tang2015}{16}
\bibcite{Neto_95a}{17}
\bibcite{Yao_12a}{18}
\bibcite{hog}{19}
\bibcite{Zeiler_13a}{20}
\bibcite{Srivas_14a}{21}
\@writefile{lof}{\contentsline {figure}{\numberline {5}{\ignorespaces Confusion matrices of DNN classifiers for one test signer (Signer 1). $20\%$ of the test signer's data (115 words) was used for adaptation, and a disjoint $70\%$ was used to compute confusion matrices. POR refers to the ``point of reference'' phonological feature\nobreakspace  {}\cite  {kim2012}. Each matrix cell is the empirical probability of the predicted class (column) given the ground-truth class (row).}}{5}}
\newlabel{fig:confmat}{{5}{5}}
