%!PS-Adobe-3.0 EPSF-3.0
%%Creator: (MATLAB, The Mathworks, Inc. Version 8.6.0.267246 \(R2015b\). Operating System: Mac OS X)
%%Title: ./adapt_bar3.eps
%%CreationDate: 2016-01-24T22:14:49
%%Pages: (atend)
%%BoundingBox:    29    26   522   401
%%LanguageLevel: 3
%%EndComments
%%BeginProlog
%%BeginResource: procset (Apache XML Graphics Std ProcSet) 1.2 0
%%Version: 1.2 0
%%Copyright: (Copyright 2001-2003,2010 The Apache Software Foundation. License terms: http://www.apache.org/licenses/LICENSE-2.0)
/bd{bind def}bind def
/ld{load def}bd
/GR/grestore ld
/M/moveto ld
/LJ/setlinejoin ld
/C/curveto ld
/f/fill ld
/LW/setlinewidth ld
/GC/setgray ld
/t/show ld
/N/newpath ld
/CT/concat ld
/cp/closepath ld
/S/stroke ld
/L/lineto ld
/CC/setcmykcolor ld
/A/ashow ld
/GS/gsave ld
/RC/setrgbcolor ld
/RM/rmoveto ld
/ML/setmiterlimit ld
/re {4 2 roll M
1 index 0 rlineto
0 exch rlineto
neg 0 rlineto
cp } bd
/_ctm matrix def
/_tm matrix def
/BT { _ctm currentmatrix pop matrix _tm copy pop 0 0 moveto } bd
/ET { _ctm setmatrix } bd
/iTm { _ctm setmatrix _tm concat } bd
/Tm { _tm astore pop iTm 0 0 moveto } bd
/ux 0.0 def
/uy 0.0 def
/F {
  /Tp exch def
  /Tf exch def
  Tf findfont Tp scalefont setfont
  /cf Tf def  /cs Tp def
} bd
/ULS {currentpoint /uy exch def /ux exch def} bd
/ULE {
  /Tcx currentpoint pop def
  gsave
  newpath
  cf findfont cs scalefont dup
  /FontMatrix get 0 get /Ts exch def /FontInfo get dup
  /UnderlinePosition get Ts mul /To exch def
  /UnderlineThickness get Ts mul /Tt exch def
  ux uy To add moveto  Tcx uy To add lineto
  Tt setlinewidth stroke
  grestore
} bd
/OLE {
  /Tcx currentpoint pop def
  gsave
  newpath
  cf findfont cs scalefont dup
  /FontMatrix get 0 get /Ts exch def /FontInfo get dup
  /UnderlinePosition get Ts mul /To exch def
  /UnderlineThickness get Ts mul /Tt exch def
  ux uy To add cs add moveto Tcx uy To add cs add lineto
  Tt setlinewidth stroke
  grestore
} bd
/SOE {
  /Tcx currentpoint pop def
  gsave
  newpath
  cf findfont cs scalefont dup
  /FontMatrix get 0 get /Ts exch def /FontInfo get dup
  /UnderlinePosition get Ts mul /To exch def
  /UnderlineThickness get Ts mul /Tt exch def
  ux uy To add cs 10 mul 26 idiv add moveto Tcx uy To add cs 10 mul 26 idiv add lineto
  Tt setlinewidth stroke
  grestore
} bd
/QT {
/Y22 exch store
/X22 exch store
/Y21 exch store
/X21 exch store
currentpoint
/Y21 load 2 mul add 3 div exch
/X21 load 2 mul add 3 div exch
/X21 load 2 mul /X22 load add 3 div
/Y21 load 2 mul /Y22 load add 3 div
/X22 load /Y22 load curveto
} bd
/SSPD {
dup length /d exch dict def
{
/v exch def
/k exch def
currentpagedevice k known {
/cpdv currentpagedevice k get def
v cpdv ne {
/upd false def
/nullv v type /nulltype eq def
/nullcpdv cpdv type /nulltype eq def
nullv nullcpdv or
{
/upd true def
} {
/sametype v type cpdv type eq def
sametype {
v type /arraytype eq {
/vlen v length def
/cpdvlen cpdv length def
vlen cpdvlen eq {
0 1 vlen 1 sub {
/i exch def
/obj v i get def
/cpdobj cpdv i get def
obj cpdobj ne {
/upd true def
exit
} if
} for
} {
/upd true def
} ifelse
} {
v type /dicttype eq {
v {
/dv exch def
/dk exch def
/cpddv cpdv dk get def
dv cpddv ne {
/upd true def
exit
} if
} forall
} {
/upd true def
} ifelse
} ifelse
} if
} ifelse
upd true eq {
d k v put
} if
} if
} if
} forall
d length 0 gt {
d setpagedevice
} if
} bd
%%EndResource
%%BeginResource: procset (Apache XML Graphics EPS ProcSet) 1.0 0
%%Version: 1.0 0
%%Copyright: (Copyright 2002-2003 The Apache Software Foundation. License terms: http://www.apache.org/licenses/LICENSE-2.0)
/BeginEPSF { %def
/b4_Inc_state save def         % Save state for cleanup
/dict_count countdictstack def % Count objects on dict stack
/op_count count 1 sub def      % Count objects on operand stack
userdict begin                 % Push userdict on dict stack
/showpage { } def              % Redefine showpage, { } = null proc
0 setgray 0 setlinecap         % Prepare graphics state
1 setlinewidth 0 setlinejoin
10 setmiterlimit [ ] 0 setdash newpath
/languagelevel where           % If level not equal to 1 then
{pop languagelevel             % set strokeadjust and
1 ne                           % overprint to their defaults.
{false setstrokeadjust false setoverprint
} if
} if
} bd
/EndEPSF { %def
count op_count sub {pop} repeat            % Clean up stacks
countdictstack dict_count sub {end} repeat
b4_Inc_state restore
} bd
%%EndResource
%FOPBeginFontDict
%%IncludeResource: font Courier-Bold
%%IncludeResource: font Helvetica
%%IncludeResource: font Courier-BoldOblique
%%IncludeResource: font Courier-Oblique
%%IncludeResource: font Times-Roman
%%IncludeResource: font Helvetica-BoldOblique
%%IncludeResource: font Helvetica-Bold
%%IncludeResource: font Helvetica-Oblique
%%IncludeResource: font Times-BoldItalic
%%IncludeResource: font Courier
%%IncludeResource: font Times-Italic
%%IncludeResource: font Times-Bold
%%IncludeResource: font Symbol
%%IncludeResource: font ZapfDingbats
%FOPEndFontDict
%%BeginResource: encoding WinAnsiEncoding
/WinAnsiEncoding [
/.notdef /.notdef /.notdef /.notdef /.notdef
/.notdef /.notdef /.notdef /.notdef /.notdef
/.notdef /.notdef /.notdef /.notdef /.notdef
/.notdef /.notdef /.notdef /.notdef /.notdef
/.notdef /.notdef /.notdef /.notdef /.notdef
/.notdef /.notdef /.notdef /.notdef /.notdef
/.notdef /.notdef /space /exclam /quotedbl
/numbersign /dollar /percent /ampersand /quotesingle
/parenleft /parenright /asterisk /plus /comma
/hyphen /period /slash /zero /one
/two /three /four /five /six
/seven /eight /nine /colon /semicolon
/less /equal /greater /question /at
/A /B /C /D /E
/F /G /H /I /J
/K /L /M /N /O
/P /Q /R /S /T
/U /V /W /X /Y
/Z /bracketleft /backslash /bracketright /asciicircum
/underscore /quoteleft /a /b /c
/d /e /f /g /h
/i /j /k /l /m
/n /o /p /q /r
/s /t /u /v /w
/x /y /z /braceleft /bar
/braceright /asciitilde /bullet /Euro /bullet
/quotesinglbase /florin /quotedblbase /ellipsis /dagger
/daggerdbl /circumflex /perthousand /Scaron /guilsinglleft
/OE /bullet /Zcaron /bullet /bullet
/quoteleft /quoteright /quotedblleft /quotedblright /bullet
/endash /emdash /asciitilde /trademark /scaron
/guilsinglright /oe /bullet /zcaron /Ydieresis
/space /exclamdown /cent /sterling /currency
/yen /brokenbar /section /dieresis /copyright
/ordfeminine /guillemotleft /logicalnot /sfthyphen /registered
/macron /degree /plusminus /twosuperior /threesuperior
/acute /mu /paragraph /middot /cedilla
/onesuperior /ordmasculine /guillemotright /onequarter /onehalf
/threequarters /questiondown /Agrave /Aacute /Acircumflex
/Atilde /Adieresis /Aring /AE /Ccedilla
/Egrave /Eacute /Ecircumflex /Edieresis /Igrave
/Iacute /Icircumflex /Idieresis /Eth /Ntilde
/Ograve /Oacute /Ocircumflex /Otilde /Odieresis
/multiply /Oslash /Ugrave /Uacute /Ucircumflex
/Udieresis /Yacute /Thorn /germandbls /agrave
/aacute /acircumflex /atilde /adieresis /aring
/ae /ccedilla /egrave /eacute /ecircumflex
/edieresis /igrave /iacute /icircumflex /idieresis
/eth /ntilde /ograve /oacute /ocircumflex
/otilde /odieresis /divide /oslash /ugrave
/uacute /ucircumflex /udieresis /yacute /thorn
/ydieresis
] def
%%EndResource
%FOPBeginFontReencode
/Courier-Bold findfont
dup length dict begin
  {1 index /FID ne {def} {pop pop} ifelse} forall
  /Encoding WinAnsiEncoding def
  currentdict
end
/Courier-Bold exch definefont pop
/Helvetica findfont
dup length dict begin
  {1 index /FID ne {def} {pop pop} ifelse} forall
  /Encoding WinAnsiEncoding def
  currentdict
end
/Helvetica exch definefont pop
/Courier-BoldOblique findfont
dup length dict begin
  {1 index /FID ne {def} {pop pop} ifelse} forall
  /Encoding WinAnsiEncoding def
  currentdict
end
/Courier-BoldOblique exch definefont pop
/Courier-Oblique findfont
dup length dict begin
  {1 index /FID ne {def} {pop pop} ifelse} forall
  /Encoding WinAnsiEncoding def
  currentdict
end
/Courier-Oblique exch definefont pop
/Times-Roman findfont
dup length dict begin
  {1 index /FID ne {def} {pop pop} ifelse} forall
  /Encoding WinAnsiEncoding def
  currentdict
end
/Times-Roman exch definefont pop
/Helvetica-BoldOblique findfont
dup length dict begin
  {1 index /FID ne {def} {pop pop} ifelse} forall
  /Encoding WinAnsiEncoding def
  currentdict
end
/Helvetica-BoldOblique exch definefont pop
/Helvetica-Bold findfont
dup length dict begin
  {1 index /FID ne {def} {pop pop} ifelse} forall
  /Encoding WinAnsiEncoding def
  currentdict
end
/Helvetica-Bold exch definefont pop
/Helvetica-Oblique findfont
dup length dict begin
  {1 index /FID ne {def} {pop pop} ifelse} forall
  /Encoding WinAnsiEncoding def
  currentdict
end
/Helvetica-Oblique exch definefont pop
/Times-BoldItalic findfont
dup length dict begin
  {1 index /FID ne {def} {pop pop} ifelse} forall
  /Encoding WinAnsiEncoding def
  currentdict
end
/Times-BoldItalic exch definefont pop
/Courier findfont
dup length dict begin
  {1 index /FID ne {def} {pop pop} ifelse} forall
  /Encoding WinAnsiEncoding def
  currentdict
end
/Courier exch definefont pop
/Times-Italic findfont
dup length dict begin
  {1 index /FID ne {def} {pop pop} ifelse} forall
  /Encoding WinAnsiEncoding def
  currentdict
end
/Times-Italic exch definefont pop
/Times-Bold findfont
dup length dict begin
  {1 index /FID ne {def} {pop pop} ifelse} forall
  /Encoding WinAnsiEncoding def
  currentdict
end
/Times-Bold exch definefont pop
%FOPEndFontReencode
%%EndProlog
%%Page: 1 1
%%PageBoundingBox: 0 0 576 432
%%BeginPageSetup
[1 0 0 -1 0 432] CT
%%EndPageSetup
GS
1 GC
N
0 0 576 432 re
f
GR
GS
1 GC
N
0 0 576 432 re
f
GR
GS
1 GC
N
75 384 M
521 384 L
521 32 L
75 32 L
cp
f
GR
GS
0.149 GC
2 setlinecap
1 LJ
0.5 LW
N
75 384 M
521 384 L
S
GR
GS
0.149 GC
2 setlinecap
1 LJ
0.5 LW
N
75 32 M
521 32 L
S
GR
GS
0.149 GC
2 setlinecap
1 LJ
0.5 LW
N
90.594 384 M
90.594 379.54 L
S
GR
GS
0.149 GC
2 setlinecap
1 LJ
0.5 LW
N
103.07 384 M
103.07 379.54 L
S
GR
GS
0.149 GC
2 setlinecap
1 LJ
0.5 LW
N
115.545 384 M
115.545 379.54 L
S
GR
GS
0.149 GC
2 setlinecap
1 LJ
0.5 LW
N
124.902 384 M
124.902 379.54 L
S
GR
GS
0.149 GC
2 setlinecap
1 LJ
0.5 LW
N
134.259 384 M
134.259 379.54 L
S
GR
GS
0.149 GC
2 setlinecap
1 LJ
0.5 LW
N
146.734 384 M
146.734 379.54 L
S
GR
GS
0.149 GC
2 setlinecap
1 LJ
0.5 LW
N
156.091 384 M
156.091 379.54 L
S
GR
GS
0.149 GC
2 setlinecap
1 LJ
0.5 LW
N
165.448 384 M
165.448 379.54 L
S
GR
GS
0.149 GC
2 setlinecap
1 LJ
0.5 LW
N
177.923 384 M
177.923 379.54 L
S
GR
GS
0.149 GC
2 setlinecap
1 LJ
0.5 LW
N
187.28 384 M
187.28 379.54 L
S
GR
GS
0.149 GC
2 setlinecap
1 LJ
0.5 LW
N
196.636 384 M
196.636 379.54 L
S
GR
GS
0.149 GC
2 setlinecap
1 LJ
0.5 LW
N
209.112 384 M
209.112 379.54 L
S
GR
GS
0.149 GC
2 setlinecap
1 LJ
0.5 LW
N
218.469 384 M
218.469 379.54 L
S
GR
GS
0.149 GC
2 setlinecap
1 LJ
0.5 LW
N
227.825 384 M
227.825 379.54 L
S
GR
GS
0.149 GC
2 setlinecap
1 LJ
0.5 LW
N
240.301 384 M
240.301 379.54 L
S
GR
GS
0.149 GC
2 setlinecap
1 LJ
0.5 LW
N
249.657 384 M
249.657 379.54 L
S
GR
GS
0.149 GC
2 setlinecap
1 LJ
0.5 LW
N
259.014 384 M
259.014 379.54 L
S
GR
GS
0.149 GC
2 setlinecap
1 LJ
0.5 LW
N
271.49 384 M
271.49 379.54 L
S
GR
GS
0.149 GC
2 setlinecap
1 LJ
0.5 LW
N
280.846 384 M
280.846 379.54 L
S
GR
GS
0.149 GC
2 setlinecap
1 LJ
0.5 LW
N
290.203 384 M
290.203 379.54 L
S
GR
GS
0.149 GC
2 setlinecap
1 LJ
0.5 LW
N
321.392 384 M
321.392 379.54 L
S
GR
GS
0.149 GC
2 setlinecap
1 LJ
0.5 LW
N
333.867 384 M
333.867 379.54 L
S
GR
GS
0.149 GC
2 setlinecap
1 LJ
0.5 LW
N
343.224 384 M
343.224 379.54 L
S
GR
GS
0.149 GC
2 setlinecap
1 LJ
0.5 LW
N
352.58 384 M
352.58 379.54 L
S
GR
GS
0.149 GC
2 setlinecap
1 LJ
0.5 LW
N
365.056 384 M
365.056 379.54 L
S
GR
GS
0.149 GC
2 setlinecap
1 LJ
0.5 LW
N
374.413 384 M
374.413 379.54 L
S
GR
GS
0.149 GC
2 setlinecap
1 LJ
0.5 LW
N
383.769 384 M
383.769 379.54 L
S
GR
GS
0.149 GC
2 setlinecap
1 LJ
0.5 LW
N
396.245 384 M
396.245 379.54 L
S
GR
GS
0.149 GC
2 setlinecap
1 LJ
0.5 LW
N
405.601 384 M
405.601 379.54 L
S
GR
GS
0.149 GC
2 setlinecap
1 LJ
0.5 LW
N
414.958 384 M
414.958 379.54 L
S
GR
GS
0.149 GC
2 setlinecap
1 LJ
0.5 LW
N
427.434 384 M
427.434 379.54 L
S
GR
GS
0.149 GC
2 setlinecap
1 LJ
0.5 LW
N
436.79 384 M
436.79 379.54 L
S
GR
GS
0.149 GC
2 setlinecap
1 LJ
0.5 LW
N
446.147 384 M
446.147 379.54 L
S
GR
GS
0.149 GC
2 setlinecap
1 LJ
0.5 LW
N
458.622 384 M
458.622 379.54 L
S
GR
GS
0.149 GC
2 setlinecap
1 LJ
0.5 LW
N
467.979 384 M
467.979 379.54 L
S
GR
GS
0.149 GC
2 setlinecap
1 LJ
0.5 LW
N
477.336 384 M
477.336 379.54 L
S
GR
GS
0.149 GC
2 setlinecap
1 LJ
0.5 LW
N
489.811 384 M
489.811 379.54 L
S
GR
GS
0.149 GC
2 setlinecap
1 LJ
0.5 LW
N
499.168 384 M
499.168 379.54 L
S
GR
GS
0.149 GC
2 setlinecap
1 LJ
0.5 LW
N
508.524 384 M
508.524 379.54 L
S
GR
GS
0.149 GC
2 setlinecap
1 LJ
0.5 LW
N
90.594 32 M
90.594 36.46 L
S
GR
GS
0.149 GC
2 setlinecap
1 LJ
0.5 LW
N
103.07 32 M
103.07 36.46 L
S
GR
GS
0.149 GC
2 setlinecap
1 LJ
0.5 LW
N
115.545 32 M
115.545 36.46 L
S
GR
GS
0.149 GC
2 setlinecap
1 LJ
0.5 LW
N
124.902 32 M
124.902 36.46 L
S
GR
GS
0.149 GC
2 setlinecap
1 LJ
0.5 LW
N
134.259 32 M
134.259 36.46 L
S
GR
GS
0.149 GC
2 setlinecap
1 LJ
0.5 LW
N
146.734 32 M
146.734 36.46 L
S
GR
GS
0.149 GC
2 setlinecap
1 LJ
0.5 LW
N
156.091 32 M
156.091 36.46 L
S
GR
GS
0.149 GC
2 setlinecap
1 LJ
0.5 LW
N
165.448 32 M
165.448 36.46 L
S
GR
GS
0.149 GC
2 setlinecap
1 LJ
0.5 LW
N
177.923 32 M
177.923 36.46 L
S
GR
GS
0.149 GC
2 setlinecap
1 LJ
0.5 LW
N
187.28 32 M
187.28 36.46 L
S
GR
GS
0.149 GC
2 setlinecap
1 LJ
0.5 LW
N
196.636 32 M
196.636 36.46 L
S
GR
GS
0.149 GC
2 setlinecap
1 LJ
0.5 LW
N
209.112 32 M
209.112 36.46 L
S
GR
GS
0.149 GC
2 setlinecap
1 LJ
0.5 LW
N
218.469 32 M
218.469 36.46 L
S
GR
GS
0.149 GC
2 setlinecap
1 LJ
0.5 LW
N
227.825 32 M
227.825 36.46 L
S
GR
GS
0.149 GC
2 setlinecap
1 LJ
0.5 LW
N
240.301 32 M
240.301 36.46 L
S
GR
GS
0.149 GC
2 setlinecap
1 LJ
0.5 LW
N
249.657 32 M
249.657 36.46 L
S
GR
GS
0.149 GC
2 setlinecap
1 LJ
0.5 LW
N
259.014 32 M
259.014 36.46 L
S
GR
GS
0.149 GC
2 setlinecap
1 LJ
0.5 LW
N
271.49 32 M
271.49 36.46 L
S
GR
GS
0.149 GC
2 setlinecap
1 LJ
0.5 LW
N
280.846 32 M
280.846 36.46 L
S
GR
GS
0.149 GC
2 setlinecap
1 LJ
0.5 LW
N
290.203 32 M
290.203 36.46 L
S
GR
GS
0.149 GC
2 setlinecap
1 LJ
0.5 LW
N
321.392 32 M
321.392 36.46 L
S
GR
GS
0.149 GC
2 setlinecap
1 LJ
0.5 LW
N
333.867 32 M
333.867 36.46 L
S
GR
GS
0.149 GC
2 setlinecap
1 LJ
0.5 LW
N
343.224 32 M
343.224 36.46 L
S
GR
GS
0.149 GC
2 setlinecap
1 LJ
0.5 LW
N
352.58 32 M
352.58 36.46 L
S
GR
GS
0.149 GC
2 setlinecap
1 LJ
0.5 LW
N
365.056 32 M
365.056 36.46 L
S
GR
GS
0.149 GC
2 setlinecap
1 LJ
0.5 LW
N
374.413 32 M
374.413 36.46 L
S
GR
GS
0.149 GC
2 setlinecap
1 LJ
0.5 LW
N
383.769 32 M
383.769 36.46 L
S
GR
GS
0.149 GC
2 setlinecap
1 LJ
0.5 LW
N
396.245 32 M
396.245 36.46 L
S
GR
GS
0.149 GC
2 setlinecap
1 LJ
0.5 LW
N
405.601 32 M
405.601 36.46 L
S
GR
GS
0.149 GC
2 setlinecap
1 LJ
0.5 LW
N
414.958 32 M
414.958 36.46 L
S
GR
GS
0.149 GC
2 setlinecap
1 LJ
0.5 LW
N
427.434 32 M
427.434 36.46 L
S
GR
GS
0.149 GC
2 setlinecap
1 LJ
0.5 LW
N
436.79 32 M
436.79 36.46 L
S
GR
GS
0.149 GC
2 setlinecap
1 LJ
0.5 LW
N
446.147 32 M
446.147 36.46 L
S
GR
GS
0.149 GC
2 setlinecap
1 LJ
0.5 LW
N
458.622 32 M
458.622 36.46 L
S
GR
GS
0.149 GC
2 setlinecap
1 LJ
0.5 LW
N
467.979 32 M
467.979 36.46 L
S
GR
GS
0.149 GC
2 setlinecap
1 LJ
0.5 LW
N
477.336 32 M
477.336 36.46 L
S
GR
GS
0.149 GC
2 setlinecap
1 LJ
0.5 LW
N
489.811 32 M
489.811 36.46 L
S
GR
GS
0.149 GC
2 setlinecap
1 LJ
0.5 LW
N
499.168 32 M
499.168 36.46 L
S
GR
GS
0.149 GC
2 setlinecap
1 LJ
0.5 LW
N
508.524 32 M
508.524 36.46 L
S
GR
GS
[1 0 0 1 90.59441 389.19998] CT
0.149 GC
/Helvetica 16 F
GS
[1 0 0 1 0 0] CT
-4.5 13 moveto 
1 -1 scale
(0) t 
GR
GR
GS
[1 0 0 1 103.06993 389.19998] CT
0.149 GC
/Helvetica 16 F
GS
[1 0 0 1 0 0] CT
-4.5 13 moveto 
1 -1 scale
(0) t 
GR
GR
GS
[1 0 0 1 115.54546 389.19998] CT
0.149 GC
/Helvetica 16 F
GS
[1 0 0 1 0 0] CT
-4.5 13 moveto 
1 -1 scale
(1) t 
GR
GR
GS
[1 0 0 1 124.9021 389.19998] CT
0.149 GC
/Helvetica 16 F
GS
[1 0 0 1 0 0] CT
-4.5 13 moveto 
1 -1 scale
(2) t 
GR
GR
GS
[1 0 0 1 134.25874 389.19998] CT
0.149 GC
/Helvetica 16 F
GS
[1 0 0 1 0 0] CT
-4.5 13 moveto 
1 -1 scale
(3) t 
GR
GR
GS
[1 0 0 1 146.73427 389.19998] CT
0.149 GC
/Helvetica 16 F
GS
[1 0 0 1 0 0] CT
-4.5 13 moveto 
1 -1 scale
(1) t 
GR
GR
GS
[1 0 0 1 156.09091 389.19998] CT
0.149 GC
/Helvetica 16 F
GS
[1 0 0 1 0 0] CT
-4.5 13 moveto 
1 -1 scale
(2) t 
GR
GR
GS
[1 0 0 1 165.44756 389.19998] CT
0.149 GC
/Helvetica 16 F
GS
[1 0 0 1 0 0] CT
-4.5 13 moveto 
1 -1 scale
(3) t 
GR
GR
GS
[1 0 0 1 177.92308 389.19998] CT
0.149 GC
/Helvetica 16 F
GS
[1 0 0 1 0 0] CT
-4.5 13 moveto 
1 -1 scale
(1) t 
GR
GR
GS
[1 0 0 1 187.27972 389.19998] CT
0.149 GC
/Helvetica 16 F
GS
[1 0 0 1 0 0] CT
-4.5 13 moveto 
1 -1 scale
(2) t 
GR
GR
GS
[1 0 0 1 196.63637 389.19998] CT
0.149 GC
/Helvetica 16 F
GS
[1 0 0 1 0 0] CT
-4.5 13 moveto 
1 -1 scale
(3) t 
GR
GR
GS
[1 0 0 1 209.11188 389.19998] CT
0.149 GC
/Helvetica 16 F
GS
[1 0 0 1 0 0] CT
-4.5 13 moveto 
1 -1 scale
(1) t 
GR
GR
GS
[1 0 0 1 218.46854 389.19998] CT
0.149 GC
/Helvetica 16 F
GS
[1 0 0 1 0 0] CT
-4.5 13 moveto 
1 -1 scale
(2) t 
GR
GR
GS
[1 0 0 1 227.82518 389.19998] CT
0.149 GC
/Helvetica 16 F
GS
[1 0 0 1 0 0] CT
-4.5 13 moveto 
1 -1 scale
(3) t 
GR
GR
GS
[1 0 0 1 240.30069 389.19998] CT
0.149 GC
/Helvetica 16 F
GS
[1 0 0 1 0 0] CT
-4.5 13 moveto 
1 -1 scale
(1) t 
GR
GR
GS
[1 0 0 1 249.65735 389.19998] CT
0.149 GC
/Helvetica 16 F
GS
[1 0 0 1 0 0] CT
-4.5 13 moveto 
1 -1 scale
(2) t 
GR
GR
GS
[1 0 0 1 259.01398 389.19998] CT
0.149 GC
/Helvetica 16 F
GS
[1 0 0 1 0 0] CT
-4.5 13 moveto 
1 -1 scale
(3) t 
GR
GR
GS
[1 0 0 1 271.4895 389.19998] CT
0.149 GC
/Helvetica 16 F
GS
[1 0 0 1 0 0] CT
-4.5 13 moveto 
1 -1 scale
(1) t 
GR
GR
GS
[1 0 0 1 280.84616 389.19998] CT
0.149 GC
/Helvetica 16 F
GS
[1 0 0 1 0 0] CT
-4.5 13 moveto 
1 -1 scale
(2) t 
GR
GR
GS
[1 0 0 1 290.20279 389.19998] CT
0.149 GC
/Helvetica 16 F
GS
[1 0 0 1 0 0] CT
-4.5 13 moveto 
1 -1 scale
(3) t 
GR
GR
GS
[1 0 0 1 321.3916 389.19998] CT
0.149 GC
/Helvetica 16 F
GS
[1 0 0 1 0 0] CT
-4.5 13 moveto 
1 -1 scale
(0) t 
GR
GR
GS
[1 0 0 1 333.86713 389.19998] CT
0.149 GC
/Helvetica 16 F
GS
[1 0 0 1 0 0] CT
-4.5 13 moveto 
1 -1 scale
(1) t 
GR
GR
GS
[1 0 0 1 343.22379 389.19998] CT
0.149 GC
/Helvetica 16 F
GS
[1 0 0 1 0 0] CT
-4.5 13 moveto 
1 -1 scale
(2) t 
GR
GR
GS
[1 0 0 1 352.58041 389.19998] CT
0.149 GC
/Helvetica 16 F
GS
[1 0 0 1 0 0] CT
-4.5 13 moveto 
1 -1 scale
(3) t 
GR
GR
GS
[1 0 0 1 365.05594 389.19998] CT
0.149 GC
/Helvetica 16 F
GS
[1 0 0 1 0 0] CT
-4.5 13 moveto 
1 -1 scale
(1) t 
GR
GR
GS
[1 0 0 1 374.4126 389.19998] CT
0.149 GC
/Helvetica 16 F
GS
[1 0 0 1 0 0] CT
-4.5 13 moveto 
1 -1 scale
(2) t 
GR
GR
GS
[1 0 0 1 383.76923 389.19998] CT
0.149 GC
/Helvetica 16 F
GS
[1 0 0 1 0 0] CT
-4.5 13 moveto 
1 -1 scale
(3) t 
GR
GR
GS
[1 0 0 1 396.24475 389.19998] CT
0.149 GC
/Helvetica 16 F
GS
[1 0 0 1 0 0] CT
-4.5 13 moveto 
1 -1 scale
(1) t 
GR
GR
GS
[1 0 0 1 405.60141 389.19998] CT
0.149 GC
/Helvetica 16 F
GS
[1 0 0 1 0 0] CT
-4.5 13 moveto 
1 -1 scale
(2) t 
GR
GR
GS
[1 0 0 1 414.95804 389.19998] CT
0.149 GC
/Helvetica 16 F
GS
[1 0 0 1 0 0] CT
-4.5 13 moveto 
1 -1 scale
(3) t 
GR
GR
GS
[1 0 0 1 427.43356 389.19998] CT
0.149 GC
/Helvetica 16 F
GS
[1 0 0 1 0 0] CT
-4.5 13 moveto 
1 -1 scale
(1) t 
GR
GR
GS
[1 0 0 1 436.79022 389.19998] CT
0.149 GC
/Helvetica 16 F
GS
[1 0 0 1 0 0] CT
-4.5 13 moveto 
1 -1 scale
(2) t 
GR
GR
GS
[1 0 0 1 446.14685 389.19998] CT
0.149 GC
/Helvetica 16 F
GS
[1 0 0 1 0 0] CT
-4.5 13 moveto 
1 -1 scale
(3) t 
GR
GR
GS
[1 0 0 1 458.62238 389.19998] CT
0.149 GC
/Helvetica 16 F
GS
[1 0 0 1 0 0] CT
-4.5 13 moveto 
1 -1 scale
(1) t 
GR
GR
GS
[1 0 0 1 467.97903 389.19998] CT
0.149 GC
/Helvetica 16 F
GS
[1 0 0 1 0 0] CT
-4.5 13 moveto 
1 -1 scale
(2) t 
GR
GR
GS
[1 0 0 1 477.33566 389.19998] CT
0.149 GC
/Helvetica 16 F
GS
[1 0 0 1 0 0] CT
-4.5 13 moveto 
1 -1 scale
(3) t 
GR
GR
GS
[1 0 0 1 489.81119 389.19998] CT
0.149 GC
/Helvetica 16 F
GS
[1 0 0 1 0 0] CT
-4.5 13 moveto 
1 -1 scale
(1) t 
GR
GR
GS
[1 0 0 1 499.16785 389.19998] CT
0.149 GC
/Helvetica 16 F
GS
[1 0 0 1 0 0] CT
-4.5 13 moveto 
1 -1 scale
(2) t 
GR
GR
GS
[1 0 0 1 508.52448 389.19998] CT
0.149 GC
/Helvetica 16 F
GS
[1 0 0 1 0 0] CT
-4.5 13 moveto 
1 -1 scale
(3) t 
GR
GR
GS
0.149 GC
2 setlinecap
1 LJ
0.5 LW
N
75 384 M
75 32 L
S
GR
GS
0.149 GC
2 setlinecap
1 LJ
0.5 LW
N
521 384 M
521 32 L
S
GR
GS
0.149 GC
2 setlinecap
1 LJ
0.5 LW
N
75 358.857 M
79.46 358.857 L
S
GR
GS
0.149 GC
2 setlinecap
1 LJ
0.5 LW
N
75 316.952 M
79.46 316.952 L
S
GR
GS
0.149 GC
2 setlinecap
1 LJ
0.5 LW
N
75 275.048 M
79.46 275.048 L
S
GR
GS
0.149 GC
2 setlinecap
1 LJ
0.5 LW
N
75 233.143 M
79.46 233.143 L
S
GR
GS
0.149 GC
2 setlinecap
1 LJ
0.5 LW
N
75 191.238 M
79.46 191.238 L
S
GR
GS
0.149 GC
2 setlinecap
1 LJ
0.5 LW
N
75 149.333 M
79.46 149.333 L
S
GR
GS
0.149 GC
2 setlinecap
1 LJ
0.5 LW
N
75 107.429 M
79.46 107.429 L
S
GR
GS
0.149 GC
2 setlinecap
1 LJ
0.5 LW
N
75 65.524 M
79.46 65.524 L
S
GR
GS
0.149 GC
2 setlinecap
1 LJ
0.5 LW
N
521 358.857 M
516.54 358.857 L
S
GR
GS
0.149 GC
2 setlinecap
1 LJ
0.5 LW
N
521 316.952 M
516.54 316.952 L
S
GR
GS
0.149 GC
2 setlinecap
1 LJ
0.5 LW
N
521 275.048 M
516.54 275.048 L
S
GR
GS
0.149 GC
2 setlinecap
1 LJ
0.5 LW
N
521 233.143 M
516.54 233.143 L
S
GR
GS
0.149 GC
2 setlinecap
1 LJ
0.5 LW
N
521 191.238 M
516.54 191.238 L
S
GR
GS
0.149 GC
2 setlinecap
1 LJ
0.5 LW
N
521 149.333 M
516.54 149.333 L
S
GR
GS
0.149 GC
2 setlinecap
1 LJ
0.5 LW
N
521 107.429 M
516.54 107.429 L
S
GR
GS
0.149 GC
2 setlinecap
1 LJ
0.5 LW
N
521 65.524 M
516.54 65.524 L
S
GR
GS
[1 0 0 1 69.8 358.85715] CT
0.149 GC
/Helvetica 16 F
GS
[1 0 0 1 0 0] CT
-18 4.5 moveto 
1 -1 scale
(60) t 
GR
GR
GS
[1 0 0 1 69.8 316.95239] CT
0.149 GC
/Helvetica 16 F
GS
[1 0 0 1 0 0] CT
-18 4.5 moveto 
1 -1 scale
(65) t 
GR
GR
GS
[1 0 0 1 69.8 275.04761] CT
0.149 GC
/Helvetica 16 F
GS
[1 0 0 1 0 0] CT
-18 4.5 moveto 
1 -1 scale
(70) t 
GR
GR
GS
[1 0 0 1 69.8 233.14285] CT
0.149 GC
/Helvetica 16 F
GS
[1 0 0 1 0 0] CT
-18 4.5 moveto 
1 -1 scale
(75) t 
GR
GR
GS
[1 0 0 1 69.8 191.2381] CT
0.149 GC
/Helvetica 16 F
GS
[1 0 0 1 0 0] CT
-18 4.5 moveto 
1 -1 scale
(80) t 
GR
GR
GS
[1 0 0 1 69.8 149.33333] CT
0.149 GC
/Helvetica 16 F
GS
[1 0 0 1 0 0] CT
-18 4.5 moveto 
1 -1 scale
(85) t 
GR
GR
GS
[1 0 0 1 69.8 107.42857] CT
0.149 GC
/Helvetica 16 F
GS
[1 0 0 1 0 0] CT
-18 4.5 moveto 
1 -1 scale
(90) t 
GR
GR
GS
[1 0 0 1 69.8 65.52381] CT
0.149 GC
/Helvetica 16 F
GS
[1 0 0 1 0 0] CT
-18 4.5 moveto 
1 -1 scale
(95) t 
GR
GR
GS
[0 -1 1 0 48.8 207.9998] CT
0.149 GC
/Helvetica 18 F
GS
[1 0 0 1 0 0] CT
-54 -5 moveto 
1 -1 scale
(Accuracy \(%\)) t 
GR
GR
GS
0.149 GC
1 LJ
0.5 LW
N
75 384 M
521 384 L
S
GR
GS
1 1 0 RC
N
86.436 384 M
94.753 384 L
94.753 315.884 L
86.436 315.884 L
cp
f
GR
GS
10.0 ML
0.5 LW
N
86.436 384 M
86.436 315.884 L
94.753 315.884 L
94.753 384 L
cp
S
GR
GS
1 LJ
2 LW
N
90.594 371.184 M
90.594 260.584 L
S
GR
GS
1 LJ
2 LW
N
90.314 371.184 M
90.875 371.184 L
S
GR
GS
1 LJ
2 LW
N
90.314 260.584 M
90.875 260.584 L
S
GR
GS
[1 0 0 1 90.59441 315.88391] CT
N
1 0 M
1 0.552 0.552 1 0 1 C
-0.552 1 -1 0.552 -1 0 C
-1 -0.552 -0.552 -1 0 -1 C
0.552 -1 1 -0.552 1 0 C
cp
f
GR
GS
0 1 1 RC
N
98.911 384 M
107.228 384 L
107.228 306.895 L
98.911 306.895 L
cp
f
GR
GS
10.0 ML
0.5 LW
N
98.911 384 M
98.911 306.895 L
107.228 306.895 L
107.228 384 L
cp
S
GR
GS
1 LJ
2 LW
N
103.07 363.378 M
103.07 250.412 L
S
GR
GS
1 LJ
2 LW
N
102.664 363.378 M
103.475 363.378 L
S
GR
GS
1 LJ
2 LW
N
102.664 250.412 M
103.475 250.412 L
S
GR
GS
[1 0 0 1 103.06993 306.89526] CT
N
1 0 M
1 0.552 0.552 1 0 1 C
-0.552 1 -1 0.552 -1 0 C
-1 -0.552 -0.552 -1 0 -1 C
0.552 -1 1 -0.552 1 0 C
cp
f
GR
GS
0.502 0.502 0 RC
N
111.803 384 M
119.288 384 L
119.288 257.969 L
111.803 257.969 L
cp
f
GR
GS
0.502 0.502 0 RC
N
121.159 384 M
128.645 384 L
128.645 227.836 L
121.159 227.836 L
cp
f
GR
GS
0.502 0.502 0 RC
N
130.516 384 M
138.001 384 L
138.001 214.165 L
130.516 214.165 L
cp
f
GR
GS
10.0 ML
0.5 LW
N
111.803 384 M
111.803 257.969 L
119.288 257.969 L
119.288 384 L
cp
S
GR
GS
10.0 ML
0.5 LW
N
121.159 384 M
121.159 227.836 L
128.645 227.836 L
128.645 384 L
cp
S
GR
GS
10.0 ML
0.5 LW
N
130.516 384 M
130.516 214.165 L
138.001 214.165 L
138.001 384 L
cp
S
GR
GS
1 LJ
2 LW
N
115.545 301.048 M
115.545 214.891 L
S
GR
GS
1 LJ
2 LW
N
124.902 260.199 M
124.902 195.474 L
S
GR
GS
1 LJ
2 LW
N
134.259 240.177 M
134.259 188.153 L
S
GR
GS
1 LJ
2 LW
N
115.358 301.048 M
115.733 301.048 L
S
GR
GS
1 LJ
2 LW
N
124.715 260.199 M
125.089 260.199 L
S
GR
GS
1 LJ
2 LW
N
134.072 240.177 M
134.446 240.177 L
S
GR
GS
1 LJ
2 LW
N
115.358 214.891 M
115.733 214.891 L
S
GR
GS
1 LJ
2 LW
N
124.715 195.474 M
125.089 195.474 L
S
GR
GS
1 LJ
2 LW
N
134.072 188.153 M
134.446 188.153 L
S
GR
GS
[1 0 0 1 115.54546 257.96933] CT
N
1 0 M
1 0.552 0.552 1 0 1 C
-0.552 1 -1 0.552 -1 0 C
-1 -0.552 -0.552 -1 0 -1 C
0.552 -1 1 -0.552 1 0 C
cp
f
GR
GS
[1 0 0 1 124.9021 227.83627] CT
N
1 0 M
1 0.552 0.552 1 0 1 C
-0.552 1 -1 0.552 -1 0 C
-1 -0.552 -0.552 -1 0 -1 C
0.552 -1 1 -0.552 1 0 C
cp
f
GR
GS
[1 0 0 1 134.25874 214.16479] CT
N
1 0 M
1 0.552 0.552 1 0 1 C
-0.552 1 -1 0.552 -1 0 C
-1 -0.552 -0.552 -1 0 -1 C
0.552 -1 1 -0.552 1 0 C
cp
f
GR
GS
0 0 1 RC
N
142.992 384 M
150.477 384 L
150.477 246.697 L
142.992 246.697 L
cp
f
GR
GS
0 0 1 RC
N
152.348 384 M
159.834 384 L
159.834 211.93 L
152.348 211.93 L
cp
f
GR
GS
0 0 1 RC
N
161.705 384 M
169.19 384 L
169.19 202.907 L
161.705 202.907 L
cp
f
GR
GS
10.0 ML
0.5 LW
N
142.992 384 M
142.992 246.697 L
150.477 246.697 L
150.477 384 L
cp
S
GR
GS
10.0 ML
0.5 LW
N
152.348 384 M
152.348 211.93 L
159.834 211.93 L
159.834 384 L
cp
S
GR
GS
10.0 ML
0.5 LW
N
161.705 384 M
161.705 202.907 L
169.19 202.907 L
169.19 384 L
cp
S
GR
GS
1 LJ
2 LW
N
146.734 289.085 M
146.734 204.309 L
S
GR
GS
1 LJ
2 LW
N
156.091 238.315 M
156.091 185.544 L
S
GR
GS
1 LJ
2 LW
N
165.448 229.793 M
165.448 176.021 L
S
GR
GS
1 LJ
2 LW
N
146.547 289.085 M
146.921 289.085 L
S
GR
GS
1 LJ
2 LW
N
155.904 238.315 M
156.278 238.315 L
S
GR
GS
1 LJ
2 LW
N
165.26 229.793 M
165.635 229.793 L
S
GR
GS
1 LJ
2 LW
N
146.547 204.309 M
146.921 204.309 L
S
GR
GS
1 LJ
2 LW
N
155.904 185.544 M
156.278 185.544 L
S
GR
GS
1 LJ
2 LW
N
165.26 176.021 M
165.635 176.021 L
S
GR
GS
[1 0 0 1 146.73427 246.69701] CT
N
1 0 M
1 0.552 0.552 1 0 1 C
-0.552 1 -1 0.552 -1 0 C
-1 -0.552 -0.552 -1 0 -1 C
0.552 -1 1 -0.552 1 0 C
cp
f
GR
GS
[1 0 0 1 156.09091 211.92953] CT
N
1 0 M
1 0.552 0.552 1 0 1 C
-0.552 1 -1 0.552 -1 0 C
-1 -0.552 -0.552 -1 0 -1 C
0.552 -1 1 -0.552 1 0 C
cp
f
GR
GS
[1 0 0 1 165.44756 202.9068] CT
N
1 0 M
1 0.552 0.552 1 0 1 C
-0.552 1 -1 0.552 -1 0 C
-1 -0.552 -0.552 -1 0 -1 C
0.552 -1 1 -0.552 1 0 C
cp
f
GR
GS
1 0.502 0 RC
N
174.18 384 M
181.666 384 L
181.666 230.505 L
174.18 230.505 L
cp
f
GR
GS
1 0.502 0 RC
N
183.537 384 M
191.022 384 L
191.022 195.194 L
183.537 195.194 L
cp
f
GR
GS
1 0.502 0 RC
N
192.894 384 M
200.379 384 L
200.379 187.187 L
192.894 187.187 L
cp
f
GR
GS
10.0 ML
0.5 LW
N
174.18 384 M
174.18 230.505 L
181.666 230.505 L
181.666 384 L
cp
S
GR
GS
10.0 ML
0.5 LW
N
183.537 384 M
183.537 195.194 L
191.022 195.194 L
191.022 384 L
cp
S
GR
GS
10.0 ML
0.5 LW
N
192.894 384 M
192.894 187.187 L
200.379 187.187 L
200.379 384 L
cp
S
GR
GS
1 LJ
2 LW
N
177.923 281.704 M
177.923 179.306 L
S
GR
GS
1 LJ
2 LW
N
187.28 223.967 M
187.28 166.42 L
S
GR
GS
1 LJ
2 LW
N
196.636 211.461 M
196.636 162.913 L
S
GR
GS
1 LJ
2 LW
N
177.736 281.704 M
178.11 281.704 L
S
GR
GS
1 LJ
2 LW
N
187.093 223.967 M
187.467 223.967 L
S
GR
GS
1 LJ
2 LW
N
196.449 211.461 M
196.824 211.461 L
S
GR
GS
1 LJ
2 LW
N
177.736 179.306 M
178.11 179.306 L
S
GR
GS
1 LJ
2 LW
N
187.093 166.42 M
187.467 166.42 L
S
GR
GS
1 LJ
2 LW
N
196.449 162.913 M
196.824 162.913 L
S
GR
GS
[1 0 0 1 177.92308 230.505] CT
N
1 0 M
1 0.552 0.552 1 0 1 C
-0.552 1 -1 0.552 -1 0 C
-1 -0.552 -0.552 -1 0 -1 C
0.552 -1 1 -0.552 1 0 C
cp
f
GR
GS
[1 0 0 1 187.27972 195.19359] CT
N
1 0 M
1 0.552 0.552 1 0 1 C
-0.552 1 -1 0.552 -1 0 C
-1 -0.552 -0.552 -1 0 -1 C
0.552 -1 1 -0.552 1 0 C
cp
f
GR
GS
[1 0 0 1 196.63637 187.18681] CT
N
1 0 M
1 0.552 0.552 1 0 1 C
-0.552 1 -1 0.552 -1 0 C
-1 -0.552 -0.552 -1 0 -1 C
0.552 -1 1 -0.552 1 0 C
cp
f
GR
GS
1 0 0 RC
N
205.369 384 M
212.855 384 L
212.855 214.356 L
205.369 214.356 L
cp
f
GR
GS
1 0 0 RC
N
214.726 384 M
222.211 384 L
222.211 184.332 L
214.726 184.332 L
cp
f
GR
GS
1 0 0 RC
N
224.083 384 M
231.568 384 L
231.568 163.058 L
224.083 163.058 L
cp
f
GR
GS
10.0 ML
0.5 LW
N
205.369 384 M
205.369 214.356 L
212.855 214.356 L
212.855 384 L
cp
S
GR
GS
10.0 ML
0.5 LW
N
214.726 384 M
214.726 184.332 L
222.211 184.332 L
222.211 384 L
cp
S
GR
GS
10.0 ML
0.5 LW
N
224.083 384 M
224.083 163.058 L
231.568 163.058 L
231.568 384 L
cp
S
GR
GS
1 LJ
2 LW
N
209.112 247.57 M
209.112 181.141 L
S
GR
GS
1 LJ
2 LW
N
218.469 212.587 M
218.469 156.076 L
S
GR
GS
1 LJ
2 LW
N
227.825 186.458 M
227.825 139.659 L
S
GR
GS
1 LJ
2 LW
N
208.925 247.57 M
209.299 247.57 L
S
GR
GS
1 LJ
2 LW
N
218.281 212.587 M
218.656 212.587 L
S
GR
GS
1 LJ
2 LW
N
227.638 186.458 M
228.012 186.458 L
S
GR
GS
1 LJ
2 LW
N
208.925 181.141 M
209.299 181.141 L
S
GR
GS
1 LJ
2 LW
N
218.281 156.076 M
218.656 156.076 L
S
GR
GS
1 LJ
2 LW
N
227.638 139.659 M
228.012 139.659 L
S
GR
GS
[1 0 0 1 209.11188 214.35555] CT
N
1 0 M
1 0.552 0.552 1 0 1 C
-0.552 1 -1 0.552 -1 0 C
-1 -0.552 -0.552 -1 0 -1 C
0.552 -1 1 -0.552 1 0 C
cp
f
GR
GS
[1 0 0 1 218.46854 184.33157] CT
N
1 0 M
1 0.552 0.552 1 0 1 C
-0.552 1 -1 0.552 -1 0 C
-1 -0.552 -0.552 -1 0 -1 C
0.552 -1 1 -0.552 1 0 C
cp
f
GR
GS
[1 0 0 1 227.82518 163.05846] CT
N
1 0 M
1 0.552 0.552 1 0 1 C
-0.552 1 -1 0.552 -1 0 C
-1 -0.552 -0.552 -1 0 -1 C
0.552 -1 1 -0.552 1 0 C
cp
f
GR
GS
0 1 0 RC
N
236.558 384 M
244.043 384 L
244.043 206.728 L
236.558 206.728 L
cp
f
GR
GS
0 1 0 RC
N
245.915 384 M
253.4 384 L
253.4 173.776 L
245.915 173.776 L
cp
f
GR
GS
0 1 0 RC
N
255.271 384 M
262.757 384 L
262.757 147.59 L
255.271 147.59 L
cp
f
GR
GS
10.0 ML
0.5 LW
N
236.558 384 M
236.558 206.728 L
244.043 206.728 L
244.043 384 L
cp
S
GR
GS
10.0 ML
0.5 LW
N
245.915 384 M
245.915 173.776 L
253.4 173.776 L
253.4 384 L
cp
S
GR
GS
10.0 ML
0.5 LW
N
255.271 384 M
255.271 147.59 L
262.757 147.59 L
262.757 384 L
cp
S
GR
GS
1 LJ
2 LW
N
240.301 242.564 M
240.301 170.892 L
S
GR
GS
1 LJ
2 LW
N
249.657 195.529 M
249.657 152.024 L
S
GR
GS
1 LJ
2 LW
N
259.014 171.077 M
259.014 124.103 L
S
GR
GS
1 LJ
2 LW
N
240.114 242.564 M
240.488 242.564 L
S
GR
GS
1 LJ
2 LW
N
249.47 195.529 M
249.844 195.529 L
S
GR
GS
1 LJ
2 LW
N
258.827 171.077 M
259.201 171.077 L
S
GR
GS
1 LJ
2 LW
N
240.114 170.892 M
240.488 170.892 L
S
GR
GS
1 LJ
2 LW
N
249.47 152.024 M
249.844 152.024 L
S
GR
GS
1 LJ
2 LW
N
258.827 124.103 M
259.201 124.103 L
S
GR
GS
[1 0 0 1 240.30069 206.72763] CT
N
1 0 M
1 0.552 0.552 1 0 1 C
-0.552 1 -1 0.552 -1 0 C
-1 -0.552 -0.552 -1 0 -1 C
0.552 -1 1 -0.552 1 0 C
cp
f
GR
GS
[1 0 0 1 249.65735 173.77621] CT
N
1 0 M
1 0.552 0.552 1 0 1 C
-0.552 1 -1 0.552 -1 0 C
-1 -0.552 -0.552 -1 0 -1 C
0.552 -1 1 -0.552 1 0 C
cp
f
GR
GS
[1 0 0 1 259.01398 147.59035] CT
N
1 0 M
1 0.552 0.552 1 0 1 C
-0.552 1 -1 0.552 -1 0 C
-1 -0.552 -0.552 -1 0 -1 C
0.552 -1 1 -0.552 1 0 C
cp
f
GR
GS
1 0 1 RC
N
267.747 384 M
275.232 384 L
275.232 186.911 L
267.747 186.911 L
cp
f
GR
GS
1 0 1 RC
N
277.103 384 M
284.589 384 L
284.589 154.987 L
277.103 154.987 L
cp
f
GR
GS
1 0 1 RC
N
286.46 384 M
293.945 384 L
293.945 131.404 L
286.46 131.404 L
cp
f
GR
GS
10.0 ML
0.5 LW
N
267.747 384 M
267.747 186.911 L
275.232 186.911 L
275.232 384 L
cp
S
GR
GS
10.0 ML
0.5 LW
N
277.103 384 M
277.103 154.987 L
284.589 154.987 L
284.589 384 L
cp
S
GR
GS
10.0 ML
0.5 LW
N
286.46 384 M
286.46 131.404 L
293.945 131.404 L
293.945 384 L
cp
S
GR
GS
1 LJ
2 LW
N
271.49 224.873 M
271.49 148.949 L
S
GR
GS
1 LJ
2 LW
N
280.846 176.744 M
280.846 133.23 L
S
GR
GS
1 LJ
2 LW
N
290.203 153.908 M
290.203 108.9 L
S
GR
GS
1 LJ
2 LW
N
271.302 224.873 M
271.677 224.873 L
S
GR
GS
1 LJ
2 LW
N
280.659 176.744 M
281.033 176.744 L
S
GR
GS
1 LJ
2 LW
N
290.016 153.908 M
290.39 153.908 L
S
GR
GS
1 LJ
2 LW
N
271.302 148.949 M
271.677 148.949 L
S
GR
GS
1 LJ
2 LW
N
280.659 133.23 M
281.033 133.23 L
S
GR
GS
1 LJ
2 LW
N
290.016 108.9 M
290.39 108.9 L
S
GR
GS
[1 0 0 1 271.4895 186.9113] CT
N
1 0 M
1 0.552 0.552 1 0 1 C
-0.552 1 -1 0.552 -1 0 C
-1 -0.552 -0.552 -1 0 -1 C
0.552 -1 1 -0.552 1 0 C
cp
f
GR
GS
[1 0 0 1 280.84616 154.98686] CT
N
1 0 M
1 0.552 0.552 1 0 1 C
-0.552 1 -1 0.552 -1 0 C
-1 -0.552 -0.552 -1 0 -1 C
0.552 -1 1 -0.552 1 0 C
cp
f
GR
GS
[1 0 0 1 290.20279 131.40405] CT
N
1 0 M
1 0.552 0.552 1 0 1 C
-0.552 1 -1 0.552 -1 0 C
-1 -0.552 -0.552 -1 0 -1 C
0.552 -1 1 -0.552 1 0 C
cp
f
GR
GS
1 1 0 RC
N
317.233 384 M
325.55 384 L
325.55 198.299 L
317.233 198.299 L
cp
f
GR
GS
10.0 ML
0.5 LW
N
317.233 384 M
317.233 198.299 L
325.55 198.299 L
325.55 384 L
cp
S
GR
GS
1 LJ
2 LW
N
321.392 217.606 M
321.392 178.991 L
S
GR
GS
1 LJ
2 LW
N
318.803 217.606 M
323.98 217.606 L
S
GR
GS
1 LJ
2 LW
N
318.803 178.991 M
323.98 178.991 L
S
GR
GS
[1 0 0 1 321.3916 198.29858] CT
N
1 0 M
1 0.552 0.552 1 0 1 C
-0.552 1 -1 0.552 -1 0 C
-1 -0.552 -0.552 -1 0 -1 C
0.552 -1 1 -0.552 1 0 C
cp
f
GR
GS
0.502 0.502 0 RC
N
330.124 384 M
337.61 384 L
337.61 171.963 L
330.124 171.963 L
cp
f
GR
GS
0.502 0.502 0 RC
N
339.481 384 M
346.966 384 L
346.966 148.452 L
339.481 148.452 L
cp
f
GR
GS
0.502 0.502 0 RC
N
348.838 384 M
356.323 384 L
356.323 138.036 L
348.838 138.036 L
cp
f
GR
GS
10.0 ML
0.5 LW
N
330.124 384 M
330.124 171.963 L
337.61 171.963 L
337.61 384 L
cp
S
GR
GS
10.0 ML
0.5 LW
N
339.481 384 M
339.481 148.452 L
346.966 148.452 L
346.966 384 L
cp
S
GR
GS
10.0 ML
0.5 LW
N
348.838 384 M
348.838 138.036 L
356.323 138.036 L
356.323 384 L
cp
S
GR
GS
1 LJ
2 LW
N
333.867 210.999 M
333.867 132.927 L
S
GR
GS
1 LJ
2 LW
N
343.224 171.378 M
343.224 125.526 L
S
GR
GS
1 LJ
2 LW
N
352.58 154.975 M
352.58 121.096 L
S
GR
GS
1 LJ
2 LW
N
333.68 210.999 M
334.054 210.999 L
S
GR
GS
1 LJ
2 LW
N
343.037 171.378 M
343.411 171.378 L
S
GR
GS
1 LJ
2 LW
N
352.393 154.975 M
352.768 154.975 L
S
GR
GS
1 LJ
2 LW
N
333.68 132.927 M
334.054 132.927 L
S
GR
GS
1 LJ
2 LW
N
343.037 125.526 M
343.411 125.526 L
S
GR
GS
1 LJ
2 LW
N
352.393 121.096 M
352.768 121.096 L
S
GR
GS
[1 0 0 1 333.86713 171.96297] CT
N
1 0 M
1 0.552 0.552 1 0 1 C
-0.552 1 -1 0.552 -1 0 C
-1 -0.552 -0.552 -1 0 -1 C
0.552 -1 1 -0.552 1 0 C
cp
f
GR
GS
[1 0 0 1 343.22379 148.45177] CT
N
1 0 M
1 0.552 0.552 1 0 1 C
-0.552 1 -1 0.552 -1 0 C
-1 -0.552 -0.552 -1 0 -1 C
0.552 -1 1 -0.552 1 0 C
cp
f
GR
GS
[1 0 0 1 352.58041 138.03561] CT
N
1 0 M
1 0.552 0.552 1 0 1 C
-0.552 1 -1 0.552 -1 0 C
-1 -0.552 -0.552 -1 0 -1 C
0.552 -1 1 -0.552 1 0 C
cp
f
GR
GS
0 0 1 RC
N
361.313 384 M
368.799 384 L
368.799 171.166 L
361.313 171.166 L
cp
f
GR
GS
0 0 1 RC
N
370.67 384 M
378.155 384 L
378.155 143.013 L
370.67 143.013 L
cp
f
GR
GS
0 0 1 RC
N
380.027 384 M
387.512 384 L
387.512 134.506 L
380.027 134.506 L
cp
f
GR
GS
10.0 ML
0.5 LW
N
361.313 384 M
361.313 171.166 L
368.799 171.166 L
368.799 384 L
cp
S
GR
GS
10.0 ML
0.5 LW
N
370.67 384 M
370.67 143.013 L
378.155 143.013 L
378.155 384 L
cp
S
GR
GS
10.0 ML
0.5 LW
N
380.027 384 M
380.027 134.506 L
387.512 134.506 L
387.512 384 L
cp
S
GR
GS
1 LJ
2 LW
N
365.056 210.015 M
365.056 132.317 L
S
GR
GS
1 LJ
2 LW
N
374.413 160.374 M
374.413 125.652 L
S
GR
GS
1 LJ
2 LW
N
383.769 152.266 M
383.769 116.747 L
S
GR
GS
1 LJ
2 LW
N
364.869 210.015 M
365.243 210.015 L
S
GR
GS
1 LJ
2 LW
N
374.225 160.374 M
374.6 160.374 L
S
GR
GS
1 LJ
2 LW
N
383.582 152.266 M
383.956 152.266 L
S
GR
GS
1 LJ
2 LW
N
364.869 132.317 M
365.243 132.317 L
S
GR
GS
1 LJ
2 LW
N
374.225 125.652 M
374.6 125.652 L
S
GR
GS
1 LJ
2 LW
N
383.582 116.747 M
383.956 116.747 L
S
GR
GS
[1 0 0 1 365.05594 171.16586] CT
N
1 0 M
1 0.552 0.552 1 0 1 C
-0.552 1 -1 0.552 -1 0 C
-1 -0.552 -0.552 -1 0 -1 C
0.552 -1 1 -0.552 1 0 C
cp
f
GR
GS
[1 0 0 1 374.4126 143.01321] CT
N
1 0 M
1 0.552 0.552 1 0 1 C
-0.552 1 -1 0.552 -1 0 C
-1 -0.552 -0.552 -1 0 -1 C
0.552 -1 1 -0.552 1 0 C
cp
f
GR
GS
[1 0 0 1 383.76923 134.5063] CT
N
1 0 M
1 0.552 0.552 1 0 1 C
-0.552 1 -1 0.552 -1 0 C
-1 -0.552 -0.552 -1 0 -1 C
0.552 -1 1 -0.552 1 0 C
cp
f
GR
GS
1 0.502 0 RC
N
392.502 384 M
399.987 384 L
399.987 152.145 L
392.502 152.145 L
cp
f
GR
GS
1 0.502 0 RC
N
401.859 384 M
409.344 384 L
409.344 131.008 L
401.859 131.008 L
cp
f
GR
GS
1 0.502 0 RC
N
411.215 384 M
418.701 384 L
418.701 125.027 L
411.215 125.027 L
cp
f
GR
GS
10.0 ML
0.5 LW
N
392.502 384 M
392.502 152.145 L
399.987 152.145 L
399.987 384 L
cp
S
GR
GS
10.0 ML
0.5 LW
N
401.859 384 M
401.859 131.008 L
409.344 131.008 L
409.344 384 L
cp
S
GR
GS
10.0 ML
0.5 LW
N
411.215 384 M
411.215 125.027 L
418.701 125.027 L
418.701 384 L
cp
S
GR
GS
1 LJ
2 LW
N
396.245 188.467 M
396.245 115.823 L
S
GR
GS
1 LJ
2 LW
N
405.601 157.711 M
405.601 104.305 L
S
GR
GS
1 LJ
2 LW
N
414.958 150.901 M
414.958 99.153 L
S
GR
GS
1 LJ
2 LW
N
396.058 188.467 M
396.432 188.467 L
S
GR
GS
1 LJ
2 LW
N
405.414 157.711 M
405.789 157.711 L
S
GR
GS
1 LJ
2 LW
N
414.771 150.901 M
415.145 150.901 L
S
GR
GS
1 LJ
2 LW
N
396.058 115.823 M
396.432 115.823 L
S
GR
GS
1 LJ
2 LW
N
405.414 104.305 M
405.789 104.305 L
S
GR
GS
1 LJ
2 LW
N
414.771 99.153 M
415.145 99.153 L
S
GR
GS
[1 0 0 1 396.24475 152.14497] CT
N
1 0 M
1 0.552 0.552 1 0 1 C
-0.552 1 -1 0.552 -1 0 C
-1 -0.552 -0.552 -1 0 -1 C
0.552 -1 1 -0.552 1 0 C
cp
f
GR
GS
[1 0 0 1 405.60141 131.00768] CT
N
1 0 M
1 0.552 0.552 1 0 1 C
-0.552 1 -1 0.552 -1 0 C
-1 -0.552 -0.552 -1 0 -1 C
0.552 -1 1 -0.552 1 0 C
cp
f
GR
GS
[1 0 0 1 414.95804 125.02728] CT
N
1 0 M
1 0.552 0.552 1 0 1 C
-0.552 1 -1 0.552 -1 0 C
-1 -0.552 -0.552 -1 0 -1 C
0.552 -1 1 -0.552 1 0 C
cp
f
GR
GS
1 0 0 RC
N
423.691 384 M
431.176 384 L
431.176 141.959 L
423.691 141.959 L
cp
f
GR
GS
1 0 0 RC
N
433.048 384 M
440.533 384 L
440.533 117.46 L
433.048 117.46 L
cp
f
GR
GS
1 0 0 RC
N
442.404 384 M
449.89 384 L
449.89 101.135 L
442.404 101.135 L
cp
f
GR
GS
10.0 ML
0.5 LW
N
423.691 384 M
423.691 141.959 L
431.176 141.959 L
431.176 384 L
cp
S
GR
GS
10.0 ML
0.5 LW
N
433.048 384 M
433.048 117.46 L
440.533 117.46 L
440.533 384 L
cp
S
GR
GS
10.0 ML
0.5 LW
N
442.404 384 M
442.404 101.135 L
449.89 101.135 L
449.89 384 L
cp
S
GR
GS
1 LJ
2 LW
N
427.434 169.765 M
427.434 114.153 L
S
GR
GS
1 LJ
2 LW
N
436.79 127.854 M
436.79 107.067 L
S
GR
GS
1 LJ
2 LW
N
446.147 109.004 M
446.147 93.266 L
S
GR
GS
1 LJ
2 LW
N
427.246 169.765 M
427.621 169.765 L
S
GR
GS
1 LJ
2 LW
N
436.603 127.854 M
436.977 127.854 L
S
GR
GS
1 LJ
2 LW
N
445.96 109.004 M
446.334 109.004 L
S
GR
GS
1 LJ
2 LW
N
427.246 114.153 M
427.621 114.153 L
S
GR
GS
1 LJ
2 LW
N
436.603 107.067 M
436.977 107.067 L
S
GR
GS
1 LJ
2 LW
N
445.96 93.266 M
446.334 93.266 L
S
GR
GS
[1 0 0 1 427.43356 141.9592] CT
N
1 0 M
1 0.552 0.552 1 0 1 C
-0.552 1 -1 0.552 -1 0 C
-1 -0.552 -0.552 -1 0 -1 C
0.552 -1 1 -0.552 1 0 C
cp
f
GR
GS
[1 0 0 1 436.79022 117.46043] CT
N
1 0 M
1 0.552 0.552 1 0 1 C
-0.552 1 -1 0.552 -1 0 C
-1 -0.552 -0.552 -1 0 -1 C
0.552 -1 1 -0.552 1 0 C
cp
f
GR
GS
[1 0 0 1 446.14685 101.13531] CT
N
1 0 M
1 0.552 0.552 1 0 1 C
-0.552 1 -1 0.552 -1 0 C
-1 -0.552 -0.552 -1 0 -1 C
0.552 -1 1 -0.552 1 0 C
cp
f
GR
GS
0 1 0 RC
N
454.88 384 M
462.365 384 L
462.365 139.783 L
454.88 139.783 L
cp
f
GR
GS
0 1 0 RC
N
464.236 384 M
471.722 384 L
471.722 117.263 L
464.236 117.263 L
cp
f
GR
GS
0 1 0 RC
N
473.593 384 M
481.078 384 L
481.078 98.576 L
473.593 98.576 L
cp
f
GR
GS
10.0 ML
0.5 LW
N
454.88 384 M
454.88 139.783 L
462.365 139.783 L
462.365 384 L
cp
S
GR
GS
10.0 ML
0.5 LW
N
464.236 384 M
464.236 117.263 L
471.722 117.263 L
471.722 384 L
cp
S
GR
GS
10.0 ML
0.5 LW
N
473.593 384 M
473.593 98.576 L
481.078 98.576 L
481.078 384 L
cp
S
GR
GS
1 LJ
2 LW
N
458.622 164.822 M
458.622 114.745 L
S
GR
GS
1 LJ
2 LW
N
467.979 130.346 M
467.979 104.181 L
S
GR
GS
1 LJ
2 LW
N
477.336 106.477 M
477.336 90.675 L
S
GR
GS
1 LJ
2 LW
N
458.435 164.822 M
458.81 164.822 L
S
GR
GS
1 LJ
2 LW
N
467.792 130.346 M
468.166 130.346 L
S
GR
GS
1 LJ
2 LW
N
477.149 106.477 M
477.523 106.477 L
S
GR
GS
1 LJ
2 LW
N
458.435 114.745 M
458.81 114.745 L
S
GR
GS
1 LJ
2 LW
N
467.792 104.181 M
468.166 104.181 L
S
GR
GS
1 LJ
2 LW
N
477.149 90.675 M
477.523 90.675 L
S
GR
GS
[1 0 0 1 458.62238 139.7832] CT
N
1 0 M
1 0.552 0.552 1 0 1 C
-0.552 1 -1 0.552 -1 0 C
-1 -0.552 -0.552 -1 0 -1 C
0.552 -1 1 -0.552 1 0 C
cp
f
GR
GS
[1 0 0 1 467.97903 117.26311] CT
N
1 0 M
1 0.552 0.552 1 0 1 C
-0.552 1 -1 0.552 -1 0 C
-1 -0.552 -0.552 -1 0 -1 C
0.552 -1 1 -0.552 1 0 C
cp
f
GR
GS
[1 0 0 1 477.33566 98.57592] CT
N
1 0 M
1 0.552 0.552 1 0 1 C
-0.552 1 -1 0.552 -1 0 C
-1 -0.552 -0.552 -1 0 -1 C
0.552 -1 1 -0.552 1 0 C
cp
f
GR
GS
1 0 1 RC
N
486.069 384 M
493.554 384 L
493.554 123.689 L
486.069 123.689 L
cp
f
GR
GS
1 0 1 RC
N
495.425 384 M
502.91 384 L
502.91 104.221 L
495.425 104.221 L
cp
f
GR
GS
1 0 1 RC
N
504.782 384 M
512.267 384 L
512.267 87.48 L
504.782 87.48 L
cp
f
GR
GS
10.0 ML
0.5 LW
N
486.069 384 M
486.069 123.689 L
493.554 123.689 L
493.554 384 L
cp
S
GR
GS
10.0 ML
0.5 LW
N
495.425 384 M
495.425 104.221 L
502.91 104.221 L
502.91 384 L
cp
S
GR
GS
10.0 ML
0.5 LW
N
504.782 384 M
504.782 87.48 L
512.267 87.48 L
512.267 384 L
cp
S
GR
GS
1 LJ
2 LW
N
489.811 151.797 M
489.811 95.58 L
S
GR
GS
1 LJ
2 LW
N
499.168 125.827 M
499.168 82.615 L
S
GR
GS
1 LJ
2 LW
N
508.524 104.253 M
508.524 70.708 L
S
GR
GS
1 LJ
2 LW
N
489.624 151.797 M
489.998 151.797 L
S
GR
GS
1 LJ
2 LW
N
498.981 125.827 M
499.355 125.827 L
S
GR
GS
1 LJ
2 LW
N
508.337 104.253 M
508.712 104.253 L
S
GR
GS
1 LJ
2 LW
N
489.624 95.58 M
489.998 95.58 L
S
GR
GS
1 LJ
2 LW
N
498.981 82.615 M
499.355 82.615 L
S
GR
GS
1 LJ
2 LW
N
508.337 70.708 M
508.712 70.708 L
S
GR
GS
[1 0 0 1 489.81119 123.68854] CT
N
1 0 M
1 0.552 0.552 1 0 1 C
-0.552 1 -1 0.552 -1 0 C
-1 -0.552 -0.552 -1 0 -1 C
0.552 -1 1 -0.552 1 0 C
cp
f
GR
GS
[1 0 0 1 499.16785 104.22062] CT
N
1 0 M
1 0.552 0.552 1 0 1 C
-0.552 1 -1 0.552 -1 0 C
-1 -0.552 -0.552 -1 0 -1 C
0.552 -1 1 -0.552 1 0 C
cp
f
GR
GS
[1 0 0 1 508.52448 87.48039] CT
N
1 0 M
1 0.552 0.552 1 0 1 C
-0.552 1 -1 0.552 -1 0 C
-1 -0.552 -0.552 -1 0 -1 C
0.552 -1 1 -0.552 1 0 C
cp
f
GR
GS
[1 0 0 1 187.27972 107.42857] CT
/Helvetica 18 F
GS
[1 0 0 1 0 0] CT
0 4.5 moveto 
1 -1 scale
(letter DNN) t 
GR
GR
GS
[1 0 0 1 343.22379 69.71429] CT
/Helvetica 18 F
GS
[1 0 0 1 0 0] CT
0 4.5 moveto 
1 -1 scale
(phon. feature DNN) t 
GR
GR
GS
[1 0 0 1 112 44.84706] CT
/Helvetica 14 F
GS
[1 0 0 1 0 0] CT
0 3.5 moveto 
1 -1 scale
(No Adapt.) t 
GR
GR
GS
1 1 0 RC
N
79 52.018 M
79 37.676 L
109 37.676 L
109 52.018 L
cp
f
GR
GS
10.0 ML
0.5 LW
N
79 52.018 M
79 37.676 L
109 37.676 L
109 52.018 L
cp
S
GR
GS
[1 0 0 1 112 64.17647] CT
/Helvetica 14 F
GS
[1 0 0 1 0 0] CT
0 3.5 moveto 
1 -1 scale
(Speed Norm.) t 
GR
GR
GS
0 1 1 RC
N
79 71.347 M
79 57.006 L
109 57.006 L
109 71.347 L
cp
f
GR
GS
10.0 ML
0.5 LW
N
79 71.347 M
79 57.006 L
109 57.006 L
109 71.347 L
cp
S
GR
GS
[1 0 0 1 112 83.50588] CT
/Helvetica 14 F
GS
[1 0 0 1 0 0] CT
0 3.5 moveto 
1 -1 scale
(LIN+LON FA) t 
GR
GR
GS
0.502 0.502 0 RC
N
79 90.676 M
79 76.335 L
109 76.335 L
109 90.676 L
cp
f
GR
GS
10.0 ML
0.5 LW
N
79 90.676 M
79 76.335 L
109 76.335 L
109 90.676 L
cp
S
GR
GS
[1 0 0 1 112 102.83529] CT
/Helvetica 14 F
GS
[1 0 0 1 0 0] CT
0 3.5 moveto 
1 -1 scale
(LIN+UP FA) t 
GR
GR
GS
0 0 1 RC
N
79 110.006 M
79 95.665 L
109 95.665 L
109 110.006 L
cp
f
GR
GS
10.0 ML
0.5 LW
N
79 110.006 M
79 95.665 L
109 95.665 L
109 110.006 L
cp
S
GR
GS
[1 0 0 1 112 122.1647] CT
/Helvetica 14 F
GS
[1 0 0 1 0 0] CT
0 3.5 moveto 
1 -1 scale
(FT FA) t 
GR
GR
GS
1 0.502 0 RC
N
79 129.335 M
79 114.994 L
109 114.994 L
109 129.335 L
cp
f
GR
GS
10.0 ML
0.5 LW
N
79 129.335 M
79 114.994 L
109 114.994 L
109 129.335 L
cp
S
GR
GS
[1 0 0 1 112 141.49411] CT
/Helvetica 14 F
GS
[1 0 0 1 0 0] CT
0 3.5 moveto 
1 -1 scale
(LIN+LON GT) t 
GR
GR
GS
1 0 0 RC
N
79 148.665 M
79 134.324 L
109 134.324 L
109 148.665 L
cp
f
GR
GS
10.0 ML
0.5 LW
N
79 148.665 M
79 134.324 L
109 134.324 L
109 148.665 L
cp
S
GR
GS
[1 0 0 1 112 160.82353] CT
/Helvetica 14 F
GS
[1 0 0 1 0 0] CT
0 3.5 moveto 
1 -1 scale
(LIN+UP GT) t 
GR
GR
GS
0 1 0 RC
N
79 167.994 M
79 153.653 L
109 153.653 L
109 167.994 L
cp
f
GR
GS
10.0 ML
0.5 LW
N
79 167.994 M
79 153.653 L
109 153.653 L
109 167.994 L
cp
S
GR
GS
[1 0 0 1 112 180.15294] CT
/Helvetica 14 F
GS
[1 0 0 1 0 0] CT
0 3.5 moveto 
1 -1 scale
(FT GT) t 
GR
GR
GS
1 0 1 RC
N
79 187.324 M
79 172.982 L
109 172.982 L
109 187.324 L
cp
f
GR
GS
10.0 ML
0.5 LW
N
79 187.324 M
79 172.982 L
109 172.982 L
109 187.324 L
cp
S
GR
%%Trailer
%%Pages: 1
%%EOF
